Regresión simple y múltiple dataset FIFA
…
PARTE 2: Regresión Lineal Simple

Extracción de la muestra con 130 datos.

1. Dataframe ‘aleatorio’.

Procedemos a crear un dataset llamado aleatorio con 130 datos aleatorios extraídos del dataset caso, instalado anteriormente.

set.seed(2)
caso1 <- sample(1:nrow(caso), 130)
aleatorio <- caso[caso1, ]
aleatorio

## # A tibble: 130 × 18
##     ...1 club      prefe…¹ team_…²   age heigh…³ weigh…⁴ overall poten…⁵ value…⁶
##    <dbl> <chr>     <chr>   <chr>   <dbl>   <dbl>   <dbl>   <dbl>   <dbl>   <dbl>
##  1    85 SC Preuß… Right   SUB        19     180      75      60      74  450000
##  2     6 Ventfore… Right   RES        21     193      86      58      65  180000
##  3   136 Deportiv… Left    SUB        32     176      69      74      74 4400000
##  4    17 Seattle … Right   RES        21     183      77      62      70  450000
##  5    93 Pogoń Sz… Right   LCB        22     191      80      67      77 1100000
##  6   125 Girona FC Right   LM         26     176      72      73      76 4900000
##  7    41 FC St. P… Right   SUB        24     183      71      67      71 1000000
##  8    75 Göztepe … Left    SUB        23     167      61      63      70  525000
##  9   131 Borussia… Right   LDM        20     191      80      72      86 7000000
## 10    50 Rangers … Right   RCM        25     182      72      73      75 4100000
## # … with 120 more rows, 8 more variables: wage_eur <dbl>,
## #   release_clause_eur <dbl>, shooting <dbl>, passing <dbl>, dribbling <dbl>,
## #   defending <dbl>, physic <dbl>, pace <dbl>, and abbreviated variable names
## #   ¹​preferred_foot, ²​team_position, ³​height_cm, ⁴​weight_kg, ⁵​potential,
## #   ⁶​value_eur
…
